<svg width="5" height="5" viewBox="0 0 5 5" fill="none" xmlns="http://www.w3.org/2000/svg">
<path d="M1.5181 0.773114C1.76694 -0.257708 3.23316 -0.257708 3.482 0.773114C3.57092 1.14149 3.85854 1.4291 4.22691 1.51803C5.25773 1.76686 5.25773 3.23309 4.22691 3.48192C3.85854 3.57085 3.57092 3.85846 3.482 4.22684C3.23316 5.25766 1.76694 5.25766 1.5181 4.22684C1.42918 3.85846 1.14156 3.57085 0.773188 3.48192C-0.257634 3.23309 -0.257634 1.76686 0.773188 1.51803C1.14156 1.4291 1.42918 1.14149 1.5181 0.773114Z" fill="url(#paint0_linear_269_1514)"/>
<defs>
<linearGradient id="paint0_linear_269_1514" x1="2.50005" y1="-3.2947" x2="2.50005" y2="8.29465" gradientUnits="userSpaceOnUse">
<stop stop-color="#70A8FF"/>
<stop offset="1" stop-color="#5597FD"/>
</linearGradient>
</defs>
</svg>
