<svg width="5" height="5" viewBox="0 0 5 5" fill="none" xmlns="http://www.w3.org/2000/svg">
<path d="M1.51801 0.773128C1.76684 -0.257701 3.23308 -0.257701 3.48192 0.773128C3.57084 1.1415 3.85846 1.42912 4.22684 1.51805C5.25767 1.76688 5.25767 3.23312 4.22684 3.48196C3.85846 3.57088 3.57084 3.8585 3.48192 4.22688C3.23308 5.2577 1.76684 5.2577 1.51801 4.22688C1.42908 3.8585 1.14147 3.57088 0.773091 3.48196C-0.257739 3.23312 -0.257739 1.76688 0.77309 1.51805C1.14147 1.42912 1.42908 1.1415 1.51801 0.773128Z" fill="#FFBEBD"/>
</svg>
