<svg width="28" height="28" viewBox="0 0 28 28" fill="none" xmlns="http://www.w3.org/2000/svg">
<g clip-path="url(#clip0_147_1788)">
<path d="M10.5 7L17.5 14L10.5 21" stroke="#9299A9" stroke-width="1.75" stroke-linecap="round" stroke-linejoin="round"/>
</g>
<defs>
<clipPath id="clip0_147_1788">
<rect width="28" height="28" fill="white"/>
</clipPath>
</defs>
</svg>
