<svg width="14" height="13" viewBox="0 0 14 13" fill="none" xmlns="http://www.w3.org/2000/svg">
<path d="M4.3544 6.35377C4.15133 6.16339 3.82209 6.16339 3.61901 6.35377C3.41594 6.54415 3.41594 6.85282 3.61901 7.0432L5.50651 8.81273C5.70958 9.00311 6.03883 9.00311 6.2419 8.81273L10.71 4.62392C10.913 4.43354 10.913 4.12488 10.71 3.93449C10.5069 3.74411 10.1776 3.74411 9.97457 3.93449L5.87421 7.77858L4.3544 6.35377Z" fill="white"/>
</svg>
