<svg width="4" height="4" viewBox="0 0 4 4" fill="none" xmlns="http://www.w3.org/2000/svg">
<path d="M1.21434 0.618534C1.41341 -0.206131 2.5864 -0.206131 2.78547 0.618534C2.85661 0.913234 3.08671 1.14333 3.38141 1.21447C4.20607 1.41354 4.20607 2.58653 3.38141 2.7856C3.08671 2.85674 2.85661 3.08684 2.78547 3.38154C2.5864 4.2062 1.41341 4.2062 1.21434 3.38154C1.1432 3.08684 0.913107 2.85674 0.618406 2.7856C-0.206259 2.58653 -0.206259 1.41354 0.618406 1.21447C0.913107 1.14333 1.1432 0.913234 1.21434 0.618534Z" fill="url(#paint0_linear_147_1856)"/>
<defs>
<linearGradient id="paint0_linear_147_1856" x1="-2.64638" y1="-0.496002" x2="6.6861" y2="-0.435409" gradientUnits="userSpaceOnUse">
<stop stop-color="#90E3F5"/>
<stop offset="1" stop-color="#65C8DE"/>
</linearGradient>
</defs>
</svg>
